﻿Vernier Format 2
15.cmbl 8/11/2019 00:18:56 .
VideoAnalysis
Time	X	Y	X Velocity	Y Velocity
t	X	Y	Vx	Vy
s	mm	mm	mm/s	mm/s

0.05	142.580372806	29.4501770947	-58.4922941573	-4.80505418589
0.054	142.320899881	29.4501770947	-55.0841844892	-4.66372906379
0.059	142.191163417	29.3204406317	-66.6852687579	1.9987410257
0.063	141.672217566	29.4501770947	-69.5425599055	12.3694813976
0.067	141.542481103	29.7096500207	-52.7594949306	-42.0562367492
0.071	141.283008177	29.0609677058	-44.5428522677	-87.8964536663
0.075	141.283008177	28.8014947798	-61.9237225508	-89.1302219905
0.079	140.893798788	28.4122853909	-103.365195029	-100.872219838
0.084	140.374852936	27.893339539	-147.560387486	-111.047628694
0.088	139.466697696	27.5041301502	-178.839170344	-142.118663629
0.092	138.947751843	26.7257113723	-210.281183743	-170.062880212
0.096	137.90986014	26.0770290575	-263.256906126	-182.604071633
0.1	136.61249551	25.2986102796	-264.121815854	-197.600080441
0.104	135.704340269	24.3904550388	-247.652492622	-188.431613083
0.109	134.536712103	23.6120362609	-259.133745644	-182.088941562
0.113	133.498820399	22.8336174831	-300.028289921	-190.356461257
0.117	132.071719305	22.0551987053	-332.990254987	-193.307329832
0.121	130.774354676	21.2767799274	-349.964108861	-192.442420078
0.125	129.217517121	20.4983611496	-351.674849515	-186.947699289
0.129	127.92015249	19.7199423718	-344.149286678	-168.877869056
0.134	126.233578472	19.0712600569	-356.885506746	-167.588983935
0.138	124.676740916	18.1631048161	-366.600902337	-158.774536006
0.142	123.249639824	17.7738954272	-366.82984903	-144.007473897
0.146	121.822538731	17.1252131123	-382.073883471	-149.521273578
0.15	120.135964712	16.4765307975	-387.530446481	-133.571320187
0.154	118.70886362	15.9575849456	-397.417552077	-97.8365561929
0.159	116.762816675	15.6981120197	-444.105719735	-79.1138038895
0.163	114.81676973	15.1791661678	-507.740182858	-48.2377976311
0.167	112.351776934	15.3089026307	-496.025743384	-16.0008304327
0.171	110.535466453	15.1791661678	-410.507791571	-12.4330776982
0.175	109.367838286	15.1791661678	-385.476285791	-5.95261418356
0.179	107.551527804	15.1791661678	-390.990085493	-11.4812530011
0.184	105.864953785	15.0494297048	-407.932141245	-10.6163432484
0.188	104.048643304	15.0494297048	-456.634191879	-2.54385221606
0.192	101.972859896	15.0494297048	-452.13157346	1.8379332261
0.196	100.286285878	15.0494297048	-415.336871047	7.20758127955
0.2	98.7294483219	15.1791661678	-390.831094709	-1.83793322396
0.204	97.3023472292	15.0494297048	-398.182827609	-13.6732056549
0.208	95.4860367476	14.9196932418	-397.281879946	4.66372906278
0.213	93.669726266	15.1791661678	-388.819331576	5.47776176689
0.217	92.1128887103	15.0494297048	-402.456499329	-8.97343869147
0.221	90.4263146917	15.0494297048	-411.697042499	-14.3791246427
0.225	88.7397406731	14.9196932418	-402.723603812	-15.2440343955
0.229	87.1829031174	14.9196932418	-388.395356207	-11.5172909055
0.233	85.6260655617	14.7899567788	-377.38895562	0
0.238	83.9394915431	14.9196932418	-395.1620031	10.6163432457
0.242	82.1231810615	14.9196932418	-424.187356872	14.0611431151
0.246	80.3068705799	15.0494297048	-404.453423312	13.4061011694
0.25	78.8797694872	15.0494297048	-380.127836508	5.40568595699
0.254	77.4526683945	15.0494297048	-393.960032932	5.56467672465
0.258	75.6363579129	15.1791661678	-390.023421629	-8.88652373371
0.263	73.9497838942	14.9196932418	-389.209388919	-11.0064005824
0.267	72.1334734126	14.9196932418	-389.26026596	16.217057871
0.271	70.8361087829	15.1791661678	-388.34447916	18.0549910949
0.275	69.1495347643	15.1791661678	-409.10231324	-5.40568596127
0.279	67.3332242826	15.0494297048	-380.662045474	-13.1962333688
0.283	66.035859653	15.0494297048	-344.675016139	-13.1601954567
0.288	64.4790220972	14.9196932418	-358.276145987	-8.07249102658
0.292	62.9221845415	14.9196932418	-398.996860318	8.10852893226
0.296	61.2356105229	15.0494297048	-434.184696078	10.8113719097
0.3	59.2895635783	15.0494297048	-433.103558883	5.29757223643
0.304	57.7327260227	15.0494297048	-418.635399411	5.95261418288
0.308	56.0461520041	15.0494297048	-421.923328406	13.5502527992
0.313	53.8406321335	15.3089026307	-410.492952452	-2.54385221404
0.317	52.2837945779	15.0494297048	-385.762469166	-23.4606770498
0.321	50.9864299481	14.9196932418	-408.8860858	-1.83793322396
0.325	48.9106465406	15.0494297048	-410.832132746	18.9199008505
0.329	47.6132819108	15.1791661678	-392.567273847	17.4699050891
0.333	45.7969714292	15.1791661678	-379.033980059	14.8900149622
0.338	44.1103974105	15.3089026307	-354.426449626	11.4812529934
0.342	42.8130327809	15.3089026307	-372.178298336	3.40876196682
0.346	41.2561952252	15.3089026307	-419.805571435	1.72981950624
0.35	39.3101482806	15.3089026307	-433.427900045	2.70284297956
0.354	37.623574262	15.3089026307	-406.291356539	8.10852893869
0.358	35.9370002433	15.4386390937	-358.75099839	0
0.363	34.6396356136	15.3089026307	-361.243973562	-7.20758127884
0.367	32.953061595	15.3089026307	-417.369832943	-3.40876196884
0.371	31.0070146503	15.3089026307	-417.210842179	-4.43266248366
0.375	29.4501770947	15.3089026307	-383.587475524	-11.6762816625
0.379	28.152812465	15.1791661678	-392.242932687	-10.6523811463
0.383	26.4662384463	15.1791661678	-434.269491155	0
0.388	24.1309821128	15.1791661678	-453.331423749	10.6163432406
0.392	22.3146716313	15.3089026307	-457.07300638	14.0611431151
0.396	20.3686246867	15.3089026307	-432.130535416	10.8113719161
0.4	18.941523594	15.4386390937	-423.445399985	-2.70284297742
0.404	16.9954766493	15.3089026307	-415.264795236	-19.7848106012
0.408	15.5683755566	15.1791661678	-395.588098343	-14.0611431151
0.412	13.7520650751	15.1791661678	-365.483727252	-5.13858147374
0.417	12.3249639824	15.1791661678	-343.708352294	-3.40876196884
0.421	10.8978628897	15.1791661678	-367.215666641	-8.10852893869
0.425	9.08155240807	15.0494297048	-327.308985017	0
0.429	8.30313363023	15.1791661678	-261.274821265	16.2170578774
