﻿Vernier Format 2
2.cmbl 8/10/2019 23:57:44 .
VideoAnalysis
Time	X	Y	X Velocity	Y Velocity
t	X	Y	Vx	Vy
s	mm	mm	mm/s	mm/s

0.05	142.0552568	30.2456218667	-24.8532955044	-46.5281943884
0.054	141.931299333	29.9977069334	-22.4980620785	-32.5629845786
0.059	141.931299333	29.9977069334	-34.7798494173	-34.7798494261
0.063	141.6833844	29.749792	-59.5238893311	-49.3460091582
0.067	141.435469467	29.6258345334	-83.877885737	-74.3744799976
0.071	140.9396396	29.1300046667	-94.0010789116	-95.7571429958
0.075	140.691724667	28.8820897334	-106.858627914	-119.874161882
0.079	140.1958948	28.1383449334	-141.441140719	-134.100914269
0.084	139.452150001	27.6425150667	-178.758009446	-141.441140727
0.088	138.460490267	26.8987702667	-195.312002498	-154.958986029
0.092	137.840702934	26.4029404	-199.984712884	-168.478856773
0.096	136.973000667	25.5352381334	-225.705887234	-177.878964665
0.1	135.981340934	24.9154508	-242.227473115	-172.477092713
0.104	134.9896812	24.1717060001	-249.14640622	-173.200177936
0.109	133.874064	23.4279612	-277.56750378	-187.378319551
0.113	132.3865744	22.5602589333	-290.747099171	-215.667762963
0.117	131.518872133	21.5685992	-299.150686244	-213.929927891
0.121	130.15534	20.7008969333	-337.784096648	-178.60204989
0.125	128.6678504	20.2050670667	-344.534917492	-155.378253926
0.129	127.304318267	19.5852797334	-334.555531247	-163.429412914
0.134	125.816828667	18.7175774667	-353.238271006	-169.846034717
0.138	124.2053816	18.0977901334	-391.450388108	-182.235705037
0.142	122.593934534	17.1061304	-415.567407001	-159.905132001
0.146	120.85853	16.734258	-430.958792455	-116.210125003
0.15	119.123125467	16.3623856	-435.060326286	-108.499241412
0.154	117.263763467	15.7425982667	-417.031806504	-76.3675216191
0.159	115.404401467	15.6186408001	-408.119831771	-41.5298022339
0.163	113.7929544	15.4946833333	-438.365858732	-28.163865592
0.167	111.809634933	15.4946833333	-454.923902691	-37.7037294392
0.171	110.0742304	15.1228109334	-449.035923021	-33.4685159936
0.175	108.2148684	15.1228109334	-436.342435378	-6.51384334502
0.179	106.3555064	15.1228109334	-381.319093207	7.66429826416
0.184	104.991974267	15.2467684	-372.828411817	8.49068137441
0.188	103.256569733	15.2467684	-414.285297876	-2.43053856358
0.192	101.5211652	15.2467684	-431.062090302	-18.9035136697
0.196	99.6618032002	14.9988534667	-415.77400277	-14.6338675923
0.2	98.2982710669	15.1228109334	-411.332193554	-5.99127755642
0.204	96.3149516002	14.9988534667	-392.683886439	-6.9695693304
0.208	94.9514194669	14.9988534667	-338.638836062	5.28237047819
0.213	93.4639298669	15.1228109334	-327.717616124	1.60415545197
0.217	92.2243552002	14.9988534667	-361.275251868	0
0.221	90.4889506669	15.1228109334	-384.061550886	-2.58244722381
0.225	89.0014610669	14.9988534667	-374.454847227	-8.57372478305
0.229	87.5139714668	14.9988534667	-365.777824558	-2.43053856358
0.233	86.1504393335	14.9988534667	-371.872400003	0
0.238	84.1671198668	14.9988534667	-380.411692153	2.43053856358
0.242	82.6796302668	14.9988534667	-379.990398796	7.74734167143
0.246	81.1921406668	15.1228109334	-393.255062995	0
0.25	79.4567361335	14.9988534667	-385.714317108	-7.74734167143
0.254	78.0932040002	14.9988534667	-373.105898325	-2.43053856358
0.258	76.3577994668	14.9988534667	-339.011518647	-1.65276622255
0.263	75.1182248001	14.9988534667	-324.412083682	-3.25692167251
0.267	73.6307352001	14.9988534667	-350.319599302	-10.1778802266
0.271	72.2672030668	14.874896	-370.322931664	-7.74734166502
0.275	70.6557560001	14.874896	-384.061550883	7.74734166502
0.279	69.0443089335	14.9988534667	-361.275251867	11.8306464491
0.283	67.6807768001	14.9988534667	-326.064849901	8.11799879767
0.288	66.3172446668	14.9988534667	-332.951375826	14.5994349656
0.292	64.8297550668	15.2467684	-371.453132097	0
0.296	63.2183080002	14.9988534667	-388.296764336	-14.6683002248
0.3	61.6068609334	14.9988534667	-374.558145117	-1.75606411005
0.304	60.2433288001	14.9988534667	-358.018330197	8.52511401246
0.308	58.6318817335	15.1228109334	-324.833377028	6.88652593016
0.313	57.3923070668	15.1228109334	-313.895953498	-7.71290904109
0.317	56.1527324001	14.9988534667	-368.196210423	-10.955652574
0.321	54.2933704001	14.9988534667	-396.973787005	-5.99127755496
0.325	52.6819233334	14.874896	-363.298675226	15.4946833364
0.329	51.5663061334	15.2467684	-359.263981211	9.35149711767
0.333	49.8309016001	14.9988534667	-362.150245752	-6.88652592446
0.338	48.2194545334	15.1228109334	-357.726665568	-10.9212199387
0.342	46.8559224001	14.874896	-397.964231466	-9.40010789398
0.346	44.9965604001	14.9988534667	-427.859855779	5.99127755283
0.35	43.1371984	14.9988534667	-391.705594662	4.33851133386
0.354	41.7736662668	14.9988534667	-333.591417645	9.40010789398
0.358	40.6580490667	15.1228109334	-321.203772776	3.2569216752
0.363	39.0466020001	14.9988534667	-346.724427677	1.60415545265
0.367	37.5591124001	15.1228109334	-382.001669462	2.88626454627
0.371	35.9476653334	15.1228109334	-409.679427339	-14.6683002255
0.375	34.0883033334	14.874896	-389.949530555	-2.68574511627
0.379	32.8487286667	14.9988534667	-368.615478326	29.7558683465
0.383	31.1133241334	15.2467684	-345.120272228	31.2081151383
0.388	29.749792	15.3707258667	-329.273160799	13.4003692722
0.392	28.3862598668	15.3707258667	-360.497479528	-8.52511400404
0.396	26.7748128	15.2467684	-377.140592336	-18.0771305517
0.4	25.2873232	15.1228109334	-377.898110184	-3.44326296223
0.404	23.7998336001	15.2467684	-382.202188887	7.74734166502
0.408	22.1883865334	15.2467684	-377.189203108	4.86107712315
0.412	20.7008969333	15.2467684	-355.620198818	10.1920583689
0.417	19.0894498667	15.3707258667	-355.263719824	6.4652325758
0.421	17.4780028001	15.2467684	-353.947178107	11.4113785523
0.425	16.3623856	15.6186408001	-376.210911339	-15.4946833322
0.429	14.5030236	15.1228109334	-404.514532889	-41.2158576714
0.433	12.8915765334	14.9988534667	-373.758162676	-4.40535114687
0.437	11.5280444	15.2467684	-343.617967915	-0.511570497929
0.442	9.54472493335	14.9988534667	-279.440710067	5.84486654294
0.45	8.05723533335	15.2467684	-229.358706234	17.925221899
